{ "frames": {
   "baluch 0.ase": {
    "frame": { "x": 0, "y": 0, "w": 1024, "h": 1024 },
    "rotated": false,
    "trimmed": false,
    "spriteSourceSize": { "x": 0, "y": 0, "w": 1024, "h": 1024 },
    "sourceSize": { "w": 1024, "h": 1024 },
    "duration": 100
   },
   "baluch 1.ase": {
    "frame": { "x": 1024, "y": 0, "w": 1024, "h": 1024 },
    "rotated": false,
    "trimmed": false,
    "spriteSourceSize": { "x": 0, "y": 0, "w": 1024, "h": 1024 },
    "sourceSize": { "w": 1024, "h": 1024 },
    "duration": 100
   },
   "baluch 2.ase": {
    "frame": { "x": 2048, "y": 0, "w": 1024, "h": 1024 },
    "rotated": false,
    "trimmed": false,
    "spriteSourceSize": { "x": 0, "y": 0, "w": 1024, "h": 1024 },
    "sourceSize": { "w": 1024, "h": 1024 },
    "duration": 100
   },
   "baluch 3.ase": {
    "frame": { "x": 3072, "y": 0, "w": 1024, "h": 1024 },
    "rotated": false,
    "trimmed": false,
    "spriteSourceSize": { "x": 0, "y": 0, "w": 1024, "h": 1024 },
    "sourceSize": { "w": 1024, "h": 1024 },
    "duration": 100
   }
 },
 "meta": {
  "app": "http://www.aseprite.org/",
  "version": "1.1.6-dev",
  "image": "/Users/james/Programming/projects/clj-corgi-game/resources/baluch.png",
  "format": "RGBA8888",
  "size": { "w": 4096, "h": 1024 },
  "scale": "1",
  "frameTags": [
  ],
  "layers": [
   { "name": "Fire", "opacity": 255, "blendMode": "normal" },
   { "name": "Baluch", "opacity": 255, "blendMode": "normal" }
  ]
 }
}
